%YAML 1.1
%TAG !u! tag:unity3d.com,2011:
--- !u!114 &11400000
MonoBehaviour:
  m_ObjectHideFlags: 0
  m_CorrespondingSourceObject: {fileID: 0}
  m_PrefabInstance: {fileID: 0}
  m_PrefabAsset: {fileID: 0}
  m_GameObject: {fileID: 0}
  m_Enabled: 1
  m_EditorHideFlags: 0
  m_Script: {fileID: 11500000, guid: 06e941a7dd1021a4f8ef198d9a17df3d, type: 3}
  m_Name: BP_C_Daily_C
  m_EditorClassIdentifier: 
  resolution: 2048
  Seed: 2.2399096
  TagsSeed: 0.23990956
  SeedOffset: 2
  Database: {fileID: 11400000, guid: d57e08f97641cc1499e0a53ee0b1e0a6, type: 2}
  totalStages: 4
  modulesPerStage: 2
  difficultyCurve:
    serializedVersion: 2
    m_Curve:
    - serializedVersion: 3
      time: 0
      value: 0
      inSlope: 0
      outSlope: 0
      tangentMode: 0
      weightedMode: 0
      inWeight: 0
      outWeight: 0.33333334
    - serializedVersion: 3
      time: 1
      value: 0.50000006
      inSlope: 0
      outSlope: 0
      tangentMode: 0
      weightedMode: 0
      inWeight: 0.68672276
      outWeight: 0
    m_PreInfinity: 2
    m_PostInfinity: 2
    m_RotationOrder: 4
  alwaysIncludeModules:
  - {fileID: 11400000, guid: 5e8251469acfbfd40b25d9ec52e33a54, type: 2}
  canBeRemovedModules:
  - {fileID: 11400000, guid: c2d98bac94e3afb4eb3049cb75fa84b7, type: 2}
  - {fileID: 11400000, guid: e5e459752bbcd93499a22b12583175ee, type: 2}
  - {fileID: 11400000, guid: 270a29de6a6ebc74fab95b6ece97dba2, type: 2}
  - {fileID: 11400000, guid: de91647b61043e44684d1d6725832687, type: 2}
  - {fileID: 11400000, guid: 908dcd31cdeb1394fb378e6d0bada717, type: 2}
  - {fileID: 11400000, guid: 5967b2e7d6d508e4ab95815d412ef09a, type: 2}
  - {fileID: 11400000, guid: 82bb4f0363acf2e47a28a4a5be4b58a8, type: 2}
  - {fileID: 11400000, guid: e6c12d85c03a92d468283d6a95565c50, type: 2}
  - {fileID: 11400000, guid: 7c385b3630b84c745b7baf55ef398d20, type: 2}
  - {fileID: 11400000, guid: 8e08d7a4d7d48d845896da45ee4df0f4, type: 2}
  - {fileID: 11400000, guid: 0bdfb7b2cca6cb242b1cd42b63418817, type: 2}
  - {fileID: 11400000, guid: a6e0fd6b23d81d44b890de8ebedc8f8d, type: 2}
  - {fileID: 11400000, guid: 796cde9780acf274dbb923064a30257d, type: 2}
  alwaysRemovedModules:
  - {fileID: 11400000, guid: e5e459752bbcd93499a22b12583175ee, type: 2}
  - {fileID: 11400000, guid: 82bb4f0363acf2e47a28a4a5be4b58a8, type: 2}
  tagsToNotRemove: 3
  maxLevel: 10
