%YAML 1.1
%TAG !u! tag:unity3d.com,2011:
--- !u!114 &11400000
MonoBehaviour:
  m_ObjectHideFlags: 0
  m_CorrespondingSourceObject: {fileID: 0}
  m_PrefabInstance: {fileID: 0}
  m_PrefabAsset: {fileID: 0}
  m_GameObject: {fileID: 0}
  m_Enabled: 1
  m_EditorHideFlags: 0
  m_Script: {fileID: 11500000, guid: 6cf4b3b48c471844c8e17d7ff5ab93c2, type: 3}
  m_Name: Settings
  m_EditorClassIdentifier: 
  bounceForce:
    useRemoteVariable: 1
    key: BounceForce
    defaultValue: 11.25
  ballGravity:
    useRemoteVariable: 1
    key: BallGravity
    defaultValue: 1.15
  defaultPortrait_PlayAreaSize: {x: 14, y: 24}
  defaultLandscape_PlayAreaSize: {x: 22, y: 14}
  swipePlatform_LifeSpan: 1.5
  swipePlatform_MaxCount: 1
  maxSimultaneousSwipes: 2
  swipePlatform_MinSize: {x: 1.2, y: 0.35}
  swipePlatform_MaxSize: {x: 7, y: 0.2}
  slowMotionAmmount: 0.2
  redCoinFlatAcceleration: 0.1
  blueCoinFlatDeacceleration: 0.1
  slowMotionDuration: 1
  starSlowMotionDuration: 2
  useVibration: 1
  ballDeadVibrationForce: 100
  swipePlatform_TouchVibrationForce: 60
  swipePlatform_PuzzleLifeSpan: 2.2222223e+17
  swipePlatform_PuzzleMaxCount: 5
  puzzleMaxSimultaneousSwipes: 6
  useCloudSaving: 0
  useFirebaseDatabase:
    useRemoteVariable: 1
    key: UseFirebaseDatabase
    defaultValue: 0
  ballSize:
    useRemoteVariable: 1
    key: BallSize
    defaultValue: 1.14
  hasRemoveAds: 0
  Input: 
  currentStyle: 2
  swipePlatform_ActiveColor: {r: 0.8862745, g: 0.28627452, b: 0.3764706, a: 1}
  swipePlatform_InactiveColor: {r: 0.8862745, g: 0.28627452, b: 0.3764706, a: 0.6862745}
  swipePlatform_WrongColor: {r: 1, g: 0.029411767, b: 0, a: 0.6666667}
  swipePlatform_DeformationLenght: 0.7
  appearCurve:
    serializedVersion: 2
    m_Curve:
    - serializedVersion: 3
      time: 0
      value: 0
      inSlope: 0
      outSlope: 0
      tangentMode: 0
      weightedMode: 0
      inWeight: 0
      outWeight: 0
    - serializedVersion: 3
      time: 1
      value: 1
      inSlope: 0
      outSlope: 0
      tangentMode: 0
      weightedMode: 0
      inWeight: 0
      outWeight: 0
    m_PreInfinity: 2
    m_PostInfinity: 2
    m_RotationOrder: 4
  swipePlatform_BounceCurve:
    curve:
      serializedVersion: 2
      m_Curve:
      - serializedVersion: 3
        time: 0
        value: -0.0057650735
        inSlope: 5.196152
        outSlope: 5.196152
        tangentMode: 0
        weightedMode: 0
        inWeight: 0.33333334
        outWeight: 0.33333334
      - serializedVersion: 3
        time: 0.110650234
        value: 0.7968772
        inSlope: -0.046871334
        outSlope: -0.046871334
        tangentMode: 0
        weightedMode: 0
        inWeight: 0.33333334
        outWeight: 0.33333334
      - serializedVersion: 3
        time: 0.2219995
        value: -0.76236767
        inSlope: -0.057311963
        outSlope: -0.057311963
        tangentMode: 0
        weightedMode: 0
        inWeight: 0.33333334
        outWeight: 0.33333334
      - serializedVersion: 3
        time: 0.37837875
        value: 0.39752874
        inSlope: 0.003352984
        outSlope: 0.003352984
        tangentMode: 0
        weightedMode: 0
        inWeight: 0.33333334
        outWeight: 0.33333334
      - serializedVersion: 3
        time: 0.5252637
        value: -0.30847976
        inSlope: -0.03222614
        outSlope: -0.03222614
        tangentMode: 0
        weightedMode: 0
        inWeight: 0.33333334
        outWeight: 0.33333334
      - serializedVersion: 3
        time: 0.67941546
        value: 0.21222891
        inSlope: -0.3204141
        outSlope: -0.3204141
        tangentMode: 0
        weightedMode: 0
        inWeight: 0.33333334
        outWeight: 0.87910974
      - serializedVersion: 3
        time: 0.8538192
        value: -0.14450726
        inSlope: -0.08074924
        outSlope: -0.08074924
        tangentMode: 0
        weightedMode: 0
        inWeight: 0.33333334
        outWeight: 0.33333334
      - serializedVersion: 3
        time: 0.99157715
        value: -0.030743577
        inSlope: -1.8036748
        outSlope: -1.8036748
        tangentMode: 0
        weightedMode: 0
        inWeight: 0.33333334
        outWeight: 0.33333334
      m_PreInfinity: 2
      m_PostInfinity: 2
      m_RotationOrder: 4
    time: 1
  swipePlatform_DissapearCurve:
    curve:
      serializedVersion: 2
      m_Curve:
      - serializedVersion: 3
        time: 0
        value: 0
        inSlope: 0.201875
        outSlope: 0.201875
        tangentMode: 0
        weightedMode: 0
        inWeight: 0.33333334
        outWeight: 0.2559427
      - serializedVersion: 3
        time: 0.5239272
        value: 0.09558322
        inSlope: 0.3592078
        outSlope: 0.3592078
        tangentMode: 0
        weightedMode: 0
        inWeight: 0.30862704
        outWeight: 0.33333334
      - serializedVersion: 3
        time: 0.7846195
        value: 0.35184437
        inSlope: 1.8997447
        outSlope: 1.8997447
        tangentMode: 136
        weightedMode: 0
        inWeight: 0.33333334
        outWeight: 0.33333334
      - serializedVersion: 3
        time: 1
        value: 1
        inSlope: 3.0093517
        outSlope: 3.0093517
        tangentMode: 34
        weightedMode: 0
        inWeight: 0.33333334
        outWeight: 0.33333334
      m_PreInfinity: 2
      m_PostInfinity: 2
      m_RotationOrder: 4
    time: 0.3
  defaultUseBloom: 1
  defaultBackground_Enable: 1
  background_Enable: 1
  Audio: 
  defaultBackgroundDetail: 1
  canBuyWithVideo:
    useRemoteVariable: 1
    key: CanBuyWithVideo
    defaultValue: 1
  canBuyPowerUpWithCoin:
    useRemoteVariable: 1
    key: CanBuyPowerUpWithCoin
    defaultValue: 1
  dailyBlueprint_Easy: {fileID: 11400000, guid: 3f5054f447f90cc488484dbf65123758,
    type: 2}
  dailyStagesCount_Easy:
    useRemoteVariable: 1
    key: DailyStagesCount_Easy
    defaultValue: 2
  dailyModulesPerStage_Easy:
    useRemoteVariable: 1
    key: DailyModulesPerStage_Easy
    defaultValue: 2
  dailyBlueprint_Medium: {fileID: 11400000, guid: 1cc6036e8d8f36f4d977a96ce344b65a,
    type: 2}
  dailyStagesCount_Medium:
    useRemoteVariable: 1
    key: DailyStagesCount_Medium
    defaultValue: 2
  dailyModulesPerStage_Medium:
    useRemoteVariable: 1
    key: DailyModulesPerStage_Medium
    defaultValue: 2
  dailyBlueprint_Hard: {fileID: 11400000, guid: 0ac240b85fb72c4439cd7e1e827ffbc9,
    type: 2}
  dailyStagesCount_Hard:
    useRemoteVariable: 1
    key: DailyStagesCount_Hard
    defaultValue: 2
  dailyModulesPerStage_Hard:
    useRemoteVariable: 1
    key: DailyModulesPerStage_Hard
    defaultValue: 2
