%YAML 1.1
%TAG !u! tag:unity3d.com,2011:
--- !u!114 &11400000
MonoBehaviour:
  m_ObjectHideFlags: 0
  m_CorrespondingSourceObject: {fileID: 0}
  m_PrefabInstance: {fileID: 0}
  m_PrefabAsset: {fileID: 0}
  m_GameObject: {fileID: 0}
  m_Enabled: 1
  m_EditorHideFlags: 0
  m_Script: {fileID: 11500000, guid: ec30e52791975e041b3c9cb392e0a8d0, type: 3}
  m_Name: Skin_Ball_Body_Sheet_00_19
  m_EditorClassIdentifier: 
  Body: {fileID: 21300070, guid: 66c2a55b6f324bf4892aef92ba95374a, type: 3}
  Name: Magda
  Description: 
  Price: 95
