%YAML 1.1
%TAG !u! tag:unity3d.com,2011:
--- !u!21 &2100000
Material:
  serializedVersion: 6
  m_ObjectHideFlags: 0
  m_CorrespondingSourceObject: {fileID: 0}
  m_PrefabInstance: {fileID: 0}
  m_PrefabAsset: {fileID: 0}
  m_Name: MultipleTextureMaterial
  m_Shader: {fileID: 4800000, guid: 62e1cf6419c962e4f95bd8d7915c47ed, type: 3}
  m_ShaderKeywords: ETC1_EXTERNAL_ALPHA
  m_LightmapFlags: 4
  m_EnableInstancingVariants: 0
  m_DoubleSidedGI: 0
  m_CustomRenderQueue: -1
  stringTagMap: {}
  disabledShaderPasses: []
  m_SavedProperties:
    serializedVersion: 3
    m_TexEnvs:
    - _BumpMap:
        m_Texture: {fileID: 0}
        m_Scale: {x: 1, y: 1}
        m_Offset: {x: 0, y: 0}
    - _DetailAlbedoMap:
        m_Texture: {fileID: 0}
        m_Scale: {x: 1, y: 1}
        m_Offset: {x: 0, y: 0}
    - _DetailMask:
        m_Texture: {fileID: 0}
        m_Scale: {x: 1, y: 1}
        m_Offset: {x: 0, y: 0}
    - _DetailNormalMap:
        m_Texture: {fileID: 0}
        m_Scale: {x: 1, y: 1}
        m_Offset: {x: 0, y: 0}
    - _EmissionMap:
        m_Texture: {fileID: 0}
        m_Scale: {x: 1, y: 1}
        m_Offset: {x: 0, y: 0}
    - _MainTex:
        m_Texture: {fileID: 0}
        m_Scale: {x: 20, y: 20}
        m_Offset: {x: 0, y: 0}
    - _MainText:
        m_Texture: {fileID: 0}
        m_Scale: {x: 1, y: 1}
        m_Offset: {x: 0, y: 0}
    - _MetallicGlossMap:
        m_Texture: {fileID: 0}
        m_Scale: {x: 1, y: 1}
        m_Offset: {x: 0, y: 0}
    - _OcclusionMap:
        m_Texture: {fileID: 0}
        m_Scale: {x: 1, y: 1}
        m_Offset: {x: 0, y: 0}
    - _ParallaxMap:
        m_Texture: {fileID: 0}
        m_Scale: {x: 1, y: 1}
        m_Offset: {x: 0, y: 0}
    - _Texture1:
        m_Texture: {fileID: 2800000, guid: 396f44f3e3a8d114a8b3cf405a82a8a3, type: 3}
        m_Scale: {x: 1, y: 1}
        m_Offset: {x: -0.01, y: -0.01}
    - _Texture2:
        m_Texture: {fileID: 2800000, guid: 86990c4fbb01fe94daa2feb964bc21ed, type: 3}
        m_Scale: {x: 1, y: 1}
        m_Offset: {x: -0.02, y: -0.1}
    - _Texture3:
        m_Texture: {fileID: 2800000, guid: 5e6a0252fc2bc5b4cbd055153281b9c7, type: 3}
        m_Scale: {x: 1, y: 1}
        m_Offset: {x: -0.04, y: -0.03}
    - _Texture4:
        m_Texture: {fileID: 2800000, guid: 28a28a2240f50704a9a8a4b04ace241e, type: 3}
        m_Scale: {x: 1, y: 1}
        m_Offset: {x: -0.01, y: -0.01}
    m_Floats:
    - _Alpha1: 0.5
    - _Alpha2: 0.5
    - _Alpha3: 0.5
    - _Alpha4: 0.5
    - _BumpScale: 1
    - _Cutoff: 0.5
    - _DetailNormalMapScale: 1
    - _DstBlend: 0
    - _GlossMapScale: 1
    - _Glossiness: 0.5
    - _GlossyReflections: 1
    - _Metallic: 0
    - _Mode: 0
    - _OcclusionStrength: 1
    - _Parallax: 0.02
    - _Scale: 2
    - _SmoothnessTextureChannel: 0
    - _Spacing1: 0
    - _Spacing2: 0
    - _Spacing3: 0
    - _Spacing4: 0
    - _SpecularHighlights: 1
    - _Speed1: 25.45
    - _Speed2: 0.4
    - _Speed3: 0.2
    - _Speed4: 0.5
    - _SpeedX1: 0
    - _SpeedX2: 0
    - _SpeedX3: 0
    - _SpeedX4: 0
    - _SpeedY1: 0
    - _SpeedY2: 0
    - _SpeedY3: 0
    - _SpeedY4: 0
    - _SrcBlend: 1
    - _UVSec: 0
    - _ZWrite: 1
    m_Colors:
    - _Color: {r: 1, g: 1, b: 1, a: 1}
    - _Color1: {r: 1, g: 1, b: 1, a: 1}
    - _Color2: {r: 1, g: 1, b: 1, a: 1}
    - _Color3: {r: 1, g: 1, b: 1, a: 1}
    - _EmissionColor: {r: 0, g: 0, b: 0, a: 1}
    - _Tint0: {r: 0.37391824, g: 0.09838911, b: 0.6320754, a: 1}
    - _Tint1: {r: 0.12156863, g: 0.078431375, b: 0.11884583, a: 0.16078432}
    - _Tint2: {r: 0.20776503, g: 0.1549929, b: 0.4056604, a: 0}
    - _Tint3: {r: 0.19925629, g: 0.16593985, b: 0.31132078, a: 0.30588236}
    - _Tint4: {r: 0.090423636, g: 0.11602815, b: 0.1509434, a: 0.1764706}
