%YAML 1.1
%TAG !u! tag:unity3d.com,2011:
--- !u!21 &2100000
Material:
  serializedVersion: 6
  m_ObjectHideFlags: 0
  m_CorrespondingSourceObject: {fileID: 0}
  m_PrefabInstance: {fileID: 0}
  m_PrefabAsset: {fileID: 0}
  m_Name: BackGodrays_1
  m_Shader: {fileID: 4800000, guid: d1dc42c24b293c746aa59ec26981dbf6, type: 3}
  m_ShaderKeywords: ETC1_EXTERNAL_ALPHA _CamPos _Height _PlayAreaHeight
  m_LightmapFlags: 4
  m_EnableInstancingVariants: 0
  m_DoubleSidedGI: 0
  m_CustomRenderQueue: 2000
  stringTagMap: {}
  disabledShaderPasses: []
  m_SavedProperties:
    serializedVersion: 3
    m_TexEnvs:
    - _BumpMap:
        m_Texture: {fileID: 0}
        m_Scale: {x: 1, y: 1}
        m_Offset: {x: 0, y: 0}
    - _DetailAlbedoMap:
        m_Texture: {fileID: 0}
        m_Scale: {x: 1, y: 1}
        m_Offset: {x: 0, y: 0}
    - _DetailMask:
        m_Texture: {fileID: 0}
        m_Scale: {x: 1, y: 1}
        m_Offset: {x: 0, y: 0}
    - _DetailNormalMap:
        m_Texture: {fileID: 0}
        m_Scale: {x: 1, y: 1}
        m_Offset: {x: 0, y: 0}
    - _EmissionMap:
        m_Texture: {fileID: 0}
        m_Scale: {x: 1, y: 1}
        m_Offset: {x: 0, y: 0}
    - _MainTex:
        m_Texture: {fileID: 0}
        m_Scale: {x: 1, y: 1}
        m_Offset: {x: 0, y: 0}
    - _MainText:
        m_Texture: {fileID: 0}
        m_Scale: {x: 1, y: 1}
        m_Offset: {x: 0, y: 0}
    - _MetallicGlossMap:
        m_Texture: {fileID: 0}
        m_Scale: {x: 1, y: 1}
        m_Offset: {x: 0, y: 0}
    - _OcclusionMap:
        m_Texture: {fileID: 0}
        m_Scale: {x: 1, y: 1}
        m_Offset: {x: 0, y: 0}
    - _ParallaxMap:
        m_Texture: {fileID: 0}
        m_Scale: {x: 1, y: 1}
        m_Offset: {x: 0, y: 0}
    - _Texture1:
        m_Texture: {fileID: 2800000, guid: 28a28a2240f50704a9a8a4b04ace241e, type: 3}
        m_Scale: {x: 1, y: 1}
        m_Offset: {x: 0, y: 0.25}
    - _Texture2:
        m_Texture: {fileID: 2800000, guid: 8ce0a4eb54ac5f746a5554766f657637, type: 3}
        m_Scale: {x: 2, y: 2}
        m_Offset: {x: 0, y: 0.1}
    - _Texture3:
        m_Texture: {fileID: 0}
        m_Scale: {x: 4, y: 4}
        m_Offset: {x: 0, y: 1}
    - _Texture4:
        m_Texture: {fileID: 2800000, guid: c55a3afc7aa9fc04ea73ae5b35c6c146, type: 3}
        m_Scale: {x: 0.6, y: 0.6}
        m_Offset: {x: -0.01, y: 0}
    m_Floats:
    - _Alpha1: 0.5
    - _Alpha2: 0.5
    - _Alpha3: 0.5
    - _Alpha4: 0.5
    - _BumpScale: 1
    - _CamPos: -10.009777
    - _Cutoff: 0.5
    - _DetailNormalMapScale: 1
    - _DstBlend: 0
    - _FloorOffset: -1.2
    - _GlossMapScale: 1
    - _Glossiness: 0.5
    - _GlossyReflections: 1
    - _Height: 241
    - _Height1: 0.021
    - _Height2: 0.04
    - _Height3: 0.308
    - _Height4: 0.743
    - _HeightOffset: 1.3
    - _LocalHeight: 47.4
    - _Metallic: 0
    - _Mode: 0
    - _OcclusionStrength: 1
    - _Offset: 59.63
    - _Parallax: 0.02
    - _PlayAreaHeight: 36
    - _PlayAreaHeigth: 11
    - _S: 0.2
    - _Scale: 0.01
    - _SmoothnessTextureChannel: 0
    - _Spacing1: 0
    - _Spacing2: 0
    - _Spacing3: 0
    - _Spacing4: 0
    - _SpecularHighlights: 1
    - _Speed1: 25.45
    - _Speed2: 0.4
    - _Speed3: 0.2
    - _Speed4: 0.5
    - _SpeedX1: 0
    - _SpeedX2: 0
    - _SpeedX3: 0
    - _SpeedX4: 0
    - _SpeedY1: 0
    - _SpeedY2: 0
    - _SpeedY3: 0
    - _SpeedY4: 0
    - _SrcBlend: 1
    - _UVSec: 0
    - _ZWrite: 1
    m_Colors:
    - _Color: {r: 1, g: 1, b: 1, a: 1}
    - _Color1: {r: 1, g: 1, b: 1, a: 1}
    - _Color2: {r: 1, g: 1, b: 1, a: 1}
    - _Color3: {r: 1, g: 1, b: 1, a: 1}
    - _EmissionColor: {r: 0, g: 0, b: 0, a: 1}
    - _OffsetAndScale: {r: -18.4, g: 0.88, b: 70, a: 70}
    - _Rotation: {r: -0.7, g: 0.7, b: -0.7, a: 0.7}
    - _Tint0: {r: 0, g: 0, b: 0, a: 0}
    - _Tint1: {r: 0.3820755, g: 0.81950885, b: 1, a: 0.75686276}
    - _Tint2: {r: 0.9333334, g: 0, b: 1, a: 0.6862745}
    - _Tint3: {r: 0, g: 0.490821, b: 0.5188679, a: 0.4745098}
    - _Tint4: {r: 0, g: 0, b: 0, a: 0.03529412}
