%YAML 1.1
%TAG !u! tag:unity3d.com,2011:
--- !u!1 &8218735586081658633
GameObject:
  m_ObjectHideFlags: 0
  m_CorrespondingSourceObject: {fileID: 0}
  m_PrefabInstance: {fileID: 0}
  m_PrefabAsset: {fileID: 0}
  serializedVersion: 6
  m_Component:
  - component: {fileID: 8218735586081658639}
  - component: {fileID: 8218735586081658632}
  m_Layer: 0
  m_Name: UI_Messenger
  m_TagString: Untagged
  m_Icon: {fileID: 0}
  m_NavMeshLayer: 0
  m_StaticEditorFlags: 0
  m_IsActive: 1
--- !u!4 &8218735586081658639
Transform:
  m_ObjectHideFlags: 0
  m_CorrespondingSourceObject: {fileID: 0}
  m_PrefabInstance: {fileID: 0}
  m_PrefabAsset: {fileID: 0}
  m_GameObject: {fileID: 8218735586081658633}
  m_LocalRotation: {x: 0, y: 0, z: 0, w: 1}
  m_LocalPosition: {x: 0, y: 0, z: 0}
  m_LocalScale: {x: 1, y: 1, z: 1}
  m_Children: []
  m_Father: {fileID: 0}
  m_RootOrder: 0
  m_LocalEulerAnglesHint: {x: 0, y: 0, z: 0}
--- !u!114 &8218735586081658632
MonoBehaviour:
  m_ObjectHideFlags: 0
  m_CorrespondingSourceObject: {fileID: 0}
  m_PrefabInstance: {fileID: 0}
  m_PrefabAsset: {fileID: 0}
  m_GameObject: {fileID: 8218735586081658633}
  m_Enabled: 1
  m_EditorHideFlags: 0
  m_Script: {fileID: 11500000, guid: f5700cfa835590e4396305b18a4c4e6a, type: 3}
  m_Name: 
  m_EditorClassIdentifier: 
  defaultToastDisplay: {fileID: 797917619791108029, guid: da64d0edc17925242afa459cfaf56c40,
    type: 3}
  defaultInteractiveDisplay: {fileID: 5576291174144425410, guid: cac0393df9de29b4291897aa341f2c0b,
    type: 3}
  defaultValueChangeDisplay: {fileID: 797917619791108029, guid: d813cee41338ee44f8c5e7f32b973e89,
    type: 3}
