%YAML 1.1
%TAG !u! tag:unity3d.com,2011:
--- !u!114 &11400000
MonoBehaviour:
  m_ObjectHideFlags: 0
  m_CorrespondingSourceObject: {fileID: 0}
  m_PrefabInstance: {fileID: 0}
  m_PrefabAsset: {fileID: 0}
  m_GameObject: {fileID: 0}
  m_Enabled: 1
  m_EditorHideFlags: 0
  m_Script: {fileID: 11500000, guid: bba49ef9f348412eb6e4fa9aef6f2392, type: 3}
  m_Name: Style_02
  m_EditorClassIdentifier: 
  SpriteShape: {fileID: 11400000, guid: aae865fca05e3364185889180b2c7b6f, type: 2}
  Background: {fileID: 2100000, guid: e0f5e2069ad3ca549b7ddd3b87d36521, type: 2}
  BackgroundGodrays: {fileID: 2100000, guid: 4cc998442d8b91e49be665c9e2cb7ef3, type: 2}
  ForegroundGodrays: {fileID: 2100000, guid: b4af0071b0ff9e44eba9db5b0c4ded87, type: 2}
  sprites:
    reorderableList:
      canAdd: 0
      canRemove: 0
      draggable: 0
      expandable: 0
      multipleSelection: 0
      isExpanded: 0
      label:
        m_Text: 
        m_Image: {fileID: 0}
        m_Tooltip: 
      headerHeight: 0
      footerHeight: 0
      slideEasing: 0
      verticalSpacing: 0
      showDefaultBackground: 0
      elementDisplayType: 0
      elementNameProperty: 
      elementNameOverride: 
      elementIcon: {fileID: 0}
    reqReferences: {fileID: 0}
    isExpanded: 0
    _keyValues: []
    _keys:
    - OneWay
    _values:
    - {fileID: 21300000, guid: 4eb03ecc217e2c94d836bba1d7deb9b9, type: 3}
