%YAML 1.1
%TAG !u! tag:unity3d.com,2011:
--- !u!114 &7909453998619466012
MonoBehaviour:
  m_ObjectHideFlags: 0
  m_CorrespondingSourceObject: {fileID: 0}
  m_PrefabInstance: {fileID: 0}
  m_PrefabAsset: {fileID: 0}
  m_GameObject: {fileID: 2976781014562799019}
  m_Enabled: 1
  m_EditorHideFlags: 0
  m_Script: {fileID: 11500000, guid: 0556f4c02472aca4f927b0bddbe1c92e, type: 3}
  m_Name: 
  m_EditorClassIdentifier: 
--- !u!1001 &887014817585441173
PrefabInstance:
  m_ObjectHideFlags: 0
  serializedVersion: 2
  m_Modification:
    m_TransformParent: {fileID: 0}
    m_Modifications:
    - target: {fileID: 2666388030169044030, guid: 7b25d06b025008f46927840d143d2839,
        type: 3}
      propertyPath: m_Name
      value: FirstStarCoin
      objectReference: {fileID: 0}
    - target: {fileID: 2666388030169044025, guid: 7b25d06b025008f46927840d143d2839,
        type: 3}
      propertyPath: m_LocalPosition.x
      value: 0
      objectReference: {fileID: 0}
    - target: {fileID: 2666388030169044025, guid: 7b25d06b025008f46927840d143d2839,
        type: 3}
      propertyPath: m_LocalPosition.y
      value: 0
      objectReference: {fileID: 0}
    - target: {fileID: 2666388030169044025, guid: 7b25d06b025008f46927840d143d2839,
        type: 3}
      propertyPath: m_LocalPosition.z
      value: 0
      objectReference: {fileID: 0}
    - target: {fileID: 2666388030169044025, guid: 7b25d06b025008f46927840d143d2839,
        type: 3}
      propertyPath: m_LocalRotation.x
      value: 0
      objectReference: {fileID: 0}
    - target: {fileID: 2666388030169044025, guid: 7b25d06b025008f46927840d143d2839,
        type: 3}
      propertyPath: m_LocalRotation.y
      value: 0
      objectReference: {fileID: 0}
    - target: {fileID: 2666388030169044025, guid: 7b25d06b025008f46927840d143d2839,
        type: 3}
      propertyPath: m_LocalRotation.z
      value: 0
      objectReference: {fileID: 0}
    - target: {fileID: 2666388030169044025, guid: 7b25d06b025008f46927840d143d2839,
        type: 3}
      propertyPath: m_LocalRotation.w
      value: 1
      objectReference: {fileID: 0}
    - target: {fileID: 2666388030169044025, guid: 7b25d06b025008f46927840d143d2839,
        type: 3}
      propertyPath: m_RootOrder
      value: 0
      objectReference: {fileID: 0}
    - target: {fileID: 2666388030169044025, guid: 7b25d06b025008f46927840d143d2839,
        type: 3}
      propertyPath: m_LocalEulerAnglesHint.x
      value: 0
      objectReference: {fileID: 0}
    - target: {fileID: 2666388030169044025, guid: 7b25d06b025008f46927840d143d2839,
        type: 3}
      propertyPath: m_LocalEulerAnglesHint.y
      value: 0
      objectReference: {fileID: 0}
    - target: {fileID: 2666388030169044025, guid: 7b25d06b025008f46927840d143d2839,
        type: 3}
      propertyPath: m_LocalEulerAnglesHint.z
      value: 0
      objectReference: {fileID: 0}
    - target: {fileID: 1449939322123756840, guid: 7b25d06b025008f46927840d143d2839,
        type: 3}
      propertyPath: activateOnGameStart
      value: 1
      objectReference: {fileID: 0}
    m_RemovedComponents: []
  m_SourcePrefab: {fileID: 100100000, guid: 7b25d06b025008f46927840d143d2839, type: 3}
--- !u!1 &2976781014562799019 stripped
GameObject:
  m_CorrespondingSourceObject: {fileID: 2666388030169044030, guid: 7b25d06b025008f46927840d143d2839,
    type: 3}
  m_PrefabInstance: {fileID: 887014817585441173}
  m_PrefabAsset: {fileID: 0}
