%YAML 1.1
%TAG !u! tag:unity3d.com,2011:
--- !u!114 &11400000
MonoBehaviour:
  m_ObjectHideFlags: 0
  m_CorrespondingSourceObject: {fileID: 0}
  m_PrefabInstance: {fileID: 0}
  m_PrefabAsset: {fileID: 0}
  m_GameObject: {fileID: 0}
  m_Enabled: 1
  m_EditorHideFlags: 0
  m_Script: {fileID: 11500000, guid: 0ed4e5bec0d0d0e4f920528538fb1c27, type: 3}
  m_Name: AudioSettings
  m_EditorClassIdentifier: 
  musicOnVolume: 0
  musicOffVolume: -90
  soundFxOnVolume: 0
  soundFxOffVolume: -90
  mixer: {fileID: 24100000, guid: 985c85c1a0c053b46a3e079ded3ffbd8, type: 2}
  music: 1
  soundFx: 1
