%YAML 1.1
%TAG !u! tag:unity3d.com,2011:
--- !u!114 &11400000
MonoBehaviour:
  m_ObjectHideFlags: 0
  m_CorrespondingSourceObject: {fileID: 0}
  m_PrefabInstance: {fileID: 0}
  m_PrefabAsset: {fileID: 0}
  m_GameObject: {fileID: 0}
  m_Enabled: 1
  m_EditorHideFlags: 0
  m_Script: {fileID: 11500000, guid: 986c67fa61678654cacd433abe8bec53, type: 3}
  m_Name: ScriptableDataBaseLibrary
  m_EditorClassIdentifier: 
  printInteractions: 0
  library:
    reorderableList:
      canAdd: 0
      canRemove: 0
      draggable: 0
      expandable: 0
      multipleSelection: 0
      isExpanded: 0
      label:
        m_Text: 
        m_Image: {fileID: 0}
        m_Tooltip: 
      headerHeight: 0
      footerHeight: 0
      slideEasing: 0
      verticalSpacing: 0
      showDefaultBackground: 0
      elementDisplayType: 0
      elementNameProperty: 
      elementNameOverride: 
      elementIcon: {fileID: 0}
    reqReferences: {fileID: 0}
    isExpanded: 0
    _keyValues:
    - Landscape_Levels
    _keys:
    - Landscape_Levels
    - Puzzle_Levels
    - Portrait_Levels
    _values:
    - {fileID: 11400000, guid: 90d3d1efd56471f4c961f93d43b03daf, type: 2}
    - {fileID: 11400000, guid: b54fe3395fdd6584cbeca49c2226796b, type: 2}
    - {fileID: 11400000, guid: 07a446060cc51e5488d6d7ce351e4ba1, type: 2}
