%YAML 1.1
%TAG !u! tag:unity3d.com,2011:
--- !u!1001 &6328601506758349812
PrefabInstance:
  m_ObjectHideFlags: 0
  serializedVersion: 2
  m_Modification:
    m_TransformParent: {fileID: 0}
    m_Modifications:
    - target: {fileID: 6922797598330258816, guid: fa0c09c41ee1b5240ac424d005e67f9a,
        type: 3}
      propertyPath: m_Name
      value: MovingBallCannon Variant
      objectReference: {fileID: 0}
    - target: {fileID: 7433177237125757958, guid: fa0c09c41ee1b5240ac424d005e67f9a,
        type: 3}
      propertyPath: curve.m_Curve.Array.size
      value: 4
      objectReference: {fileID: 0}
    - target: {fileID: 7433177237125757958, guid: fa0c09c41ee1b5240ac424d005e67f9a,
        type: 3}
      propertyPath: target
      value: 
      objectReference: {fileID: 6391112026519394440}
    - target: {fileID: 7433177237125757958, guid: fa0c09c41ee1b5240ac424d005e67f9a,
        type: 3}
      propertyPath: duration
      value: 4
      objectReference: {fileID: 0}
    - target: {fileID: 7433177237125757958, guid: fa0c09c41ee1b5240ac424d005e67f9a,
        type: 3}
      propertyPath: curve.m_Curve.Array.data[1].time
      value: 0.3
      objectReference: {fileID: 0}
    - target: {fileID: 7433177237125757958, guid: fa0c09c41ee1b5240ac424d005e67f9a,
        type: 3}
      propertyPath: curve.m_Curve.Array.data[1].value
      value: 0
      objectReference: {fileID: 0}
    - target: {fileID: 7433177237125757958, guid: fa0c09c41ee1b5240ac424d005e67f9a,
        type: 3}
      propertyPath: curve.m_Curve.Array.data[1].inWeight
      value: 0.33333334
      objectReference: {fileID: 0}
    - target: {fileID: 7433177237125757958, guid: fa0c09c41ee1b5240ac424d005e67f9a,
        type: 3}
      propertyPath: curve.m_Curve.Array.data[1].outWeight
      value: 0.33333334
      objectReference: {fileID: 0}
    - target: {fileID: 7433177237125757958, guid: fa0c09c41ee1b5240ac424d005e67f9a,
        type: 3}
      propertyPath: curve.m_Curve.Array.data[2].time
      value: 0.7
      objectReference: {fileID: 0}
    - target: {fileID: 7433177237125757958, guid: fa0c09c41ee1b5240ac424d005e67f9a,
        type: 3}
      propertyPath: curve.m_Curve.Array.data[2].value
      value: 1
      objectReference: {fileID: 0}
    - target: {fileID: 7433177237125757958, guid: fa0c09c41ee1b5240ac424d005e67f9a,
        type: 3}
      propertyPath: curve.m_Curve.Array.data[2].inWeight
      value: 0.33333334
      objectReference: {fileID: 0}
    - target: {fileID: 7433177237125757958, guid: fa0c09c41ee1b5240ac424d005e67f9a,
        type: 3}
      propertyPath: curve.m_Curve.Array.data[2].outWeight
      value: 0.33333334
      objectReference: {fileID: 0}
    - target: {fileID: 7433177237125757958, guid: fa0c09c41ee1b5240ac424d005e67f9a,
        type: 3}
      propertyPath: curve.m_Curve.Array.data[3].time
      value: 1
      objectReference: {fileID: 0}
    - target: {fileID: 7433177237125757958, guid: fa0c09c41ee1b5240ac424d005e67f9a,
        type: 3}
      propertyPath: curve.m_Curve.Array.data[3].value
      value: 1
      objectReference: {fileID: 0}
    - target: {fileID: 6922797598329837986, guid: fa0c09c41ee1b5240ac424d005e67f9a,
        type: 3}
      propertyPath: m_LocalPosition.x
      value: 0
      objectReference: {fileID: 0}
    - target: {fileID: 6922797598329837986, guid: fa0c09c41ee1b5240ac424d005e67f9a,
        type: 3}
      propertyPath: m_LocalPosition.y
      value: 36.25
      objectReference: {fileID: 0}
    - target: {fileID: 6922797598329837986, guid: fa0c09c41ee1b5240ac424d005e67f9a,
        type: 3}
      propertyPath: m_LocalPosition.z
      value: 0
      objectReference: {fileID: 0}
    - target: {fileID: 6922797598329837986, guid: fa0c09c41ee1b5240ac424d005e67f9a,
        type: 3}
      propertyPath: m_LocalRotation.x
      value: 0
      objectReference: {fileID: 0}
    - target: {fileID: 6922797598329837986, guid: fa0c09c41ee1b5240ac424d005e67f9a,
        type: 3}
      propertyPath: m_LocalRotation.y
      value: 0
      objectReference: {fileID: 0}
    - target: {fileID: 6922797598329837986, guid: fa0c09c41ee1b5240ac424d005e67f9a,
        type: 3}
      propertyPath: m_LocalRotation.z
      value: 0
      objectReference: {fileID: 0}
    - target: {fileID: 6922797598329837986, guid: fa0c09c41ee1b5240ac424d005e67f9a,
        type: 3}
      propertyPath: m_LocalRotation.w
      value: 1
      objectReference: {fileID: 0}
    - target: {fileID: 6922797598329837986, guid: fa0c09c41ee1b5240ac424d005e67f9a,
        type: 3}
      propertyPath: m_RootOrder
      value: 0
      objectReference: {fileID: 0}
    - target: {fileID: 6922797598329837986, guid: fa0c09c41ee1b5240ac424d005e67f9a,
        type: 3}
      propertyPath: m_LocalEulerAnglesHint.x
      value: 0
      objectReference: {fileID: 0}
    - target: {fileID: 6922797598329837986, guid: fa0c09c41ee1b5240ac424d005e67f9a,
        type: 3}
      propertyPath: m_LocalEulerAnglesHint.y
      value: 0
      objectReference: {fileID: 0}
    - target: {fileID: 6922797598329837986, guid: fa0c09c41ee1b5240ac424d005e67f9a,
        type: 3}
      propertyPath: m_LocalEulerAnglesHint.z
      value: 0
      objectReference: {fileID: 0}
    - target: {fileID: 1288546647107504256, guid: fa0c09c41ee1b5240ac424d005e67f9a,
        type: 3}
      propertyPath: m_LocalPosition.x
      value: 4.25
      objectReference: {fileID: 0}
    - target: {fileID: 7672567531952002602, guid: fa0c09c41ee1b5240ac424d005e67f9a,
        type: 3}
      propertyPath: m_LocalPosition.x
      value: -4
      objectReference: {fileID: 0}
    m_RemovedComponents: []
  m_SourcePrefab: {fileID: 100100000, guid: fa0c09c41ee1b5240ac424d005e67f9a, type: 3}
--- !u!4 &4017494775878240854 stripped
Transform:
  m_CorrespondingSourceObject: {fileID: 6922797598329837986, guid: fa0c09c41ee1b5240ac424d005e67f9a,
    type: 3}
  m_PrefabInstance: {fileID: 6328601506758349812}
  m_PrefabAsset: {fileID: 0}
--- !u!1001 &6700187721888805530
PrefabInstance:
  m_ObjectHideFlags: 0
  serializedVersion: 2
  m_Modification:
    m_TransformParent: {fileID: 4017494775878240854}
    m_Modifications:
    - target: {fileID: 309081227702823443, guid: b5ff21ccfa968b8409ad7fbeae8e817b,
        type: 3}
      propertyPath: m_Name
      value: Cannon_Prefab
      objectReference: {fileID: 0}
    - target: {fileID: 309081227702823442, guid: b5ff21ccfa968b8409ad7fbeae8e817b,
        type: 3}
      propertyPath: m_LocalPosition.x
      value: -4
      objectReference: {fileID: 0}
    - target: {fileID: 309081227702823442, guid: b5ff21ccfa968b8409ad7fbeae8e817b,
        type: 3}
      propertyPath: m_LocalPosition.y
      value: 0
      objectReference: {fileID: 0}
    - target: {fileID: 309081227702823442, guid: b5ff21ccfa968b8409ad7fbeae8e817b,
        type: 3}
      propertyPath: m_LocalPosition.z
      value: 0
      objectReference: {fileID: 0}
    - target: {fileID: 309081227702823442, guid: b5ff21ccfa968b8409ad7fbeae8e817b,
        type: 3}
      propertyPath: m_LocalRotation.x
      value: -0
      objectReference: {fileID: 0}
    - target: {fileID: 309081227702823442, guid: b5ff21ccfa968b8409ad7fbeae8e817b,
        type: 3}
      propertyPath: m_LocalRotation.y
      value: -0
      objectReference: {fileID: 0}
    - target: {fileID: 309081227702823442, guid: b5ff21ccfa968b8409ad7fbeae8e817b,
        type: 3}
      propertyPath: m_LocalRotation.z
      value: -0
      objectReference: {fileID: 0}
    - target: {fileID: 309081227702823442, guid: b5ff21ccfa968b8409ad7fbeae8e817b,
        type: 3}
      propertyPath: m_LocalRotation.w
      value: 1
      objectReference: {fileID: 0}
    - target: {fileID: 309081227702823442, guid: b5ff21ccfa968b8409ad7fbeae8e817b,
        type: 3}
      propertyPath: m_RootOrder
      value: 2
      objectReference: {fileID: 0}
    - target: {fileID: 309081227702823442, guid: b5ff21ccfa968b8409ad7fbeae8e817b,
        type: 3}
      propertyPath: m_LocalEulerAnglesHint.x
      value: 0
      objectReference: {fileID: 0}
    - target: {fileID: 309081227702823442, guid: b5ff21ccfa968b8409ad7fbeae8e817b,
        type: 3}
      propertyPath: m_LocalEulerAnglesHint.y
      value: 0
      objectReference: {fileID: 0}
    - target: {fileID: 309081227702823442, guid: b5ff21ccfa968b8409ad7fbeae8e817b,
        type: 3}
      propertyPath: m_LocalEulerAnglesHint.z
      value: 0
      objectReference: {fileID: 0}
    - target: {fileID: 309081227702823441, guid: b5ff21ccfa968b8409ad7fbeae8e817b,
        type: 3}
      propertyPath: fireVelocity
      value: 35
      objectReference: {fileID: 0}
    m_RemovedComponents: []
  m_SourcePrefab: {fileID: 100100000, guid: b5ff21ccfa968b8409ad7fbeae8e817b, type: 3}
--- !u!4 &6391112026519394440 stripped
Transform:
  m_CorrespondingSourceObject: {fileID: 309081227702823442, guid: b5ff21ccfa968b8409ad7fbeae8e817b,
    type: 3}
  m_PrefabInstance: {fileID: 6700187721888805530}
  m_PrefabAsset: {fileID: 0}
