%YAML 1.1
%TAG !u! tag:unity3d.com,2011:
--- !u!114 &11400000
MonoBehaviour:
  m_ObjectHideFlags: 0
  m_CorrespondingSourceObject: {fileID: 0}
  m_PrefabInstance: {fileID: 0}
  m_PrefabAsset: {fileID: 0}
  m_GameObject: {fileID: 0}
  m_Enabled: 1
  m_EditorHideFlags: 0
  m_Script: {fileID: 11500000, guid: 69c9f7246f403d64cbb7281299db9dc3, type: 3}
  m_Name: Adv_Level_07
  m_EditorClassIdentifier: 
  objectives:
    Platforms: 35
    Time: 40
    Deaths: 5
    Stars: 0
  levelStages:
  - ID: 
    Difficulty: 0
    Height: 30
    Seed: 0
    distanceBetweenModules: {x: 3, y: 5}
    addTags:
    - {fileID: 11400000, guid: 5e8251469acfbfd40b25d9ec52e33a54, type: 2}
    removeTags:
    - {fileID: 11400000, guid: 270a29de6a6ebc74fab95b6ece97dba2, type: 2}
    - {fileID: 11400000, guid: 5a37e37ff9602654ba964fccab842221, type: 2}
    - {fileID: 11400000, guid: de91647b61043e44684d1d6725832687, type: 2}
    - {fileID: 11400000, guid: 5967b2e7d6d508e4ab95815d412ef09a, type: 2}
    - {fileID: 11400000, guid: 82bb4f0363acf2e47a28a4a5be4b58a8, type: 2}
    - {fileID: 11400000, guid: e6c12d85c03a92d468283d6a95565c50, type: 2}
    - {fileID: 11400000, guid: 7c385b3630b84c745b7baf55ef398d20, type: 2}
    - {fileID: 11400000, guid: 0bdfb7b2cca6cb242b1cd42b63418817, type: 2}
  - ID: 
    Difficulty: 0
    Height: 50
    Seed: 0
    distanceBetweenModules: {x: 3, y: 5}
    addTags:
    - {fileID: 11400000, guid: 5e8251469acfbfd40b25d9ec52e33a54, type: 2}
    removeTags:
    - {fileID: 11400000, guid: c2d98bac94e3afb4eb3049cb75fa84b7, type: 2}
    - {fileID: 11400000, guid: 5a37e37ff9602654ba964fccab842221, type: 2}
    - {fileID: 11400000, guid: de91647b61043e44684d1d6725832687, type: 2}
    - {fileID: 11400000, guid: 5967b2e7d6d508e4ab95815d412ef09a, type: 2}
    - {fileID: 11400000, guid: 82bb4f0363acf2e47a28a4a5be4b58a8, type: 2}
    - {fileID: 11400000, guid: e6c12d85c03a92d468283d6a95565c50, type: 2}
    - {fileID: 11400000, guid: 8e08d7a4d7d48d845896da45ee4df0f4, type: 2}
    - {fileID: 11400000, guid: 0bdfb7b2cca6cb242b1cd42b63418817, type: 2}
  - ID: 
    Difficulty: 0
    Height: 60
    Seed: 0
    distanceBetweenModules: {x: 3, y: 5}
    addTags:
    - {fileID: 11400000, guid: 5e8251469acfbfd40b25d9ec52e33a54, type: 2}
    removeTags:
    - {fileID: 11400000, guid: 5a37e37ff9602654ba964fccab842221, type: 2}
    - {fileID: 11400000, guid: de91647b61043e44684d1d6725832687, type: 2}
    - {fileID: 11400000, guid: 82bb4f0363acf2e47a28a4a5be4b58a8, type: 2}
    - {fileID: 11400000, guid: 8e08d7a4d7d48d845896da45ee4df0f4, type: 2}
    - {fileID: 11400000, guid: 0bdfb7b2cca6cb242b1cd42b63418817, type: 2}
