%YAML 1.1
%TAG !u! tag:unity3d.com,2011:
--- !u!114 &940282971753021855
MonoBehaviour:
  m_ObjectHideFlags: 0
  m_CorrespondingSourceObject: {fileID: 0}
  m_PrefabInstance: {fileID: 0}
  m_PrefabAsset: {fileID: 0}
  m_GameObject: {fileID: 8827127525503496751}
  m_Enabled: 1
  m_EditorHideFlags: 0
  m_Script: {fileID: 11500000, guid: 07201c8da5c174c48b5c2eb5dc1846b2, type: 3}
  m_Name: 
  m_EditorClassIdentifier: 
--- !u!1 &8546919018880973339
GameObject:
  m_ObjectHideFlags: 0
  m_CorrespondingSourceObject: {fileID: 0}
  m_PrefabInstance: {fileID: 0}
  m_PrefabAsset: {fileID: 0}
  serializedVersion: 6
  m_Component:
  - component: {fileID: 430320751325977512}
  - component: {fileID: 1315994682888553600}
  m_Layer: 0
  m_Name: Body (1)
  m_TagString: Untagged
  m_Icon: {fileID: 0}
  m_NavMeshLayer: 0
  m_StaticEditorFlags: 0
  m_IsActive: 1
--- !u!4 &430320751325977512
Transform:
  m_ObjectHideFlags: 0
  m_CorrespondingSourceObject: {fileID: 0}
  m_PrefabInstance: {fileID: 0}
  m_PrefabAsset: {fileID: 0}
  m_GameObject: {fileID: 8546919018880973339}
  m_LocalRotation: {x: 0, y: 0, z: 0, w: 1}
  m_LocalPosition: {x: 0, y: 0.25, z: 0}
  m_LocalScale: {x: 0.2, y: 0.2, z: 1}
  m_Children: []
  m_Father: {fileID: 8827127524683714681}
  m_RootOrder: 2
  m_LocalEulerAnglesHint: {x: 0, y: 0, z: 0}
--- !u!212 &1315994682888553600
SpriteRenderer:
  m_ObjectHideFlags: 0
  m_CorrespondingSourceObject: {fileID: 0}
  m_PrefabInstance: {fileID: 0}
  m_PrefabAsset: {fileID: 0}
  m_GameObject: {fileID: 8546919018880973339}
  m_Enabled: 1
  m_CastShadows: 0
  m_ReceiveShadows: 0
  m_DynamicOccludee: 1
  m_MotionVectors: 1
  m_LightProbeUsage: 1
  m_ReflectionProbeUsage: 1
  m_RenderingLayerMask: 1
  m_RendererPriority: 0
  m_Materials:
  - {fileID: 10754, guid: 0000000000000000f000000000000000, type: 0}
  m_StaticBatchInfo:
    firstSubMesh: 0
    subMeshCount: 0
  m_StaticBatchRoot: {fileID: 0}
  m_ProbeAnchor: {fileID: 0}
  m_LightProbeVolumeOverride: {fileID: 0}
  m_ScaleInLightmap: 1
  m_PreserveUVs: 0
  m_IgnoreNormalsForChartDetection: 0
  m_ImportantGI: 0
  m_StitchLightmapSeams: 0
  m_SelectedEditorRenderState: 0
  m_MinimumChartSize: 4
  m_AutoUVMaxDistance: 0.5
  m_AutoUVMaxAngle: 89
  m_LightmapParameters: {fileID: 0}
  m_SortingLayerID: 0
  m_SortingLayer: 0
  m_SortingOrder: 1
  m_Sprite: {fileID: 21300000, guid: fa3ad9f0f84227e439db0dbbc846f213, type: 3}
  m_Color: {r: 1, g: 1, b: 1, a: 1}
  m_FlipX: 0
  m_FlipY: 0
  m_DrawMode: 0
  m_Size: {x: 1, y: 0.5}
  m_AdaptiveModeThreshold: 0.5
  m_SpriteTileMode: 0
  m_WasSpriteAssigned: 1
  m_MaskInteraction: 0
  m_SpriteSortPoint: 0
--- !u!1001 &6028817653738531523
PrefabInstance:
  m_ObjectHideFlags: 0
  serializedVersion: 2
  m_Modification:
    m_TransformParent: {fileID: 0}
    m_Modifications:
    - target: {fileID: 2966438398421965036, guid: 47bac8dd4e49dc649b56236dcc4a964a,
        type: 3}
      propertyPath: m_Name
      value: WallButton GravityInvert
      objectReference: {fileID: 0}
    - target: {fileID: 2966438398421964945, guid: 47bac8dd4e49dc649b56236dcc4a964a,
        type: 3}
      propertyPath: m_LocalPosition.x
      value: 0
      objectReference: {fileID: 0}
    - target: {fileID: 2966438398421964945, guid: 47bac8dd4e49dc649b56236dcc4a964a,
        type: 3}
      propertyPath: m_LocalPosition.y
      value: 0
      objectReference: {fileID: 0}
    - target: {fileID: 2966438398421964945, guid: 47bac8dd4e49dc649b56236dcc4a964a,
        type: 3}
      propertyPath: m_LocalPosition.z
      value: 0
      objectReference: {fileID: 0}
    - target: {fileID: 2966438398421964945, guid: 47bac8dd4e49dc649b56236dcc4a964a,
        type: 3}
      propertyPath: m_LocalRotation.x
      value: -0
      objectReference: {fileID: 0}
    - target: {fileID: 2966438398421964945, guid: 47bac8dd4e49dc649b56236dcc4a964a,
        type: 3}
      propertyPath: m_LocalRotation.y
      value: -0
      objectReference: {fileID: 0}
    - target: {fileID: 2966438398421964945, guid: 47bac8dd4e49dc649b56236dcc4a964a,
        type: 3}
      propertyPath: m_LocalRotation.z
      value: -0.7071058
      objectReference: {fileID: 0}
    - target: {fileID: 2966438398421964945, guid: 47bac8dd4e49dc649b56236dcc4a964a,
        type: 3}
      propertyPath: m_LocalRotation.w
      value: 0.7071078
      objectReference: {fileID: 0}
    - target: {fileID: 2966438398421964945, guid: 47bac8dd4e49dc649b56236dcc4a964a,
        type: 3}
      propertyPath: m_RootOrder
      value: 0
      objectReference: {fileID: 0}
    - target: {fileID: 2966438398421964945, guid: 47bac8dd4e49dc649b56236dcc4a964a,
        type: 3}
      propertyPath: m_LocalEulerAnglesHint.x
      value: 0
      objectReference: {fileID: 0}
    - target: {fileID: 2966438398421964945, guid: 47bac8dd4e49dc649b56236dcc4a964a,
        type: 3}
      propertyPath: m_LocalEulerAnglesHint.y
      value: 0
      objectReference: {fileID: 0}
    - target: {fileID: 2966438398421964945, guid: 47bac8dd4e49dc649b56236dcc4a964a,
        type: 3}
      propertyPath: m_LocalEulerAnglesHint.z
      value: -90.00001
      objectReference: {fileID: 0}
    - target: {fileID: 2966438398421964946, guid: 47bac8dd4e49dc649b56236dcc4a964a,
        type: 3}
      propertyPath: targets.Array.size
      value: 1
      objectReference: {fileID: 0}
    - target: {fileID: 2966438398421964946, guid: 47bac8dd4e49dc649b56236dcc4a964a,
        type: 3}
      propertyPath: targets.Array.data[0]
      value: 
      objectReference: {fileID: 8827127525503496751}
    - target: {fileID: 2966438399663552500, guid: 47bac8dd4e49dc649b56236dcc4a964a,
        type: 3}
      propertyPath: m_Color.r
      value: 0.56263435
      objectReference: {fileID: 0}
    - target: {fileID: 2966438399663552500, guid: 47bac8dd4e49dc649b56236dcc4a964a,
        type: 3}
      propertyPath: m_Color.g
      value: 0.21960783
      objectReference: {fileID: 0}
    - target: {fileID: 2966438399663552500, guid: 47bac8dd4e49dc649b56236dcc4a964a,
        type: 3}
      propertyPath: m_Color.b
      value: 0.8980392
      objectReference: {fileID: 0}
    m_RemovedComponents: []
  m_SourcePrefab: {fileID: 100100000, guid: 47bac8dd4e49dc649b56236dcc4a964a, type: 3}
--- !u!1 &8827127525503496751 stripped
GameObject:
  m_CorrespondingSourceObject: {fileID: 2966438398421965036, guid: 47bac8dd4e49dc649b56236dcc4a964a,
    type: 3}
  m_PrefabInstance: {fileID: 6028817653738531523}
  m_PrefabAsset: {fileID: 0}
--- !u!4 &8827127524683714681 stripped
Transform:
  m_CorrespondingSourceObject: {fileID: 2966438399418366650, guid: 47bac8dd4e49dc649b56236dcc4a964a,
    type: 3}
  m_PrefabInstance: {fileID: 6028817653738531523}
  m_PrefabAsset: {fileID: 0}
