%YAML 1.1
%TAG !u! tag:unity3d.com,2011:
--- !u!114 &11400000
MonoBehaviour:
  m_ObjectHideFlags: 0
  m_CorrespondingSourceObject: {fileID: 0}
  m_PrefabInstance: {fileID: 0}
  m_PrefabAsset: {fileID: 0}
  m_GameObject: {fileID: 0}
  m_Enabled: 1
  m_EditorHideFlags: 0
  m_Script: {fileID: 11500000, guid: 37f0d9205dfb97643b4f0dd99bd030c7, type: 3}
  m_Name: Shop
  m_EditorClassIdentifier: 
  availableProducts:
  - DisplayText: Temoty
    SecondaryId: 0
    Price: 0
    IsAccumulative: 0
    Type: 1
  - DisplayText: Chip
    SecondaryId: 1
    Price: 5
    IsAccumulative: 0
    Type: 1
  - DisplayText: Lorenge
    SecondaryId: 2
    Price: 10
    IsAccumulative: 0
    Type: 1
  - DisplayText: Dumpty
    SecondaryId: 3
    Price: 15
    IsAccumulative: 0
    Type: 1
  - DisplayText: Katy
    SecondaryId: 4
    Price: 20
    IsAccumulative: 0
    Type: 1
  - DisplayText: Brad
    SecondaryId: 5
    Price: 25
    IsAccumulative: 0
    Type: 1
  - DisplayText: Bansket
    SecondaryId: 6
    Price: 30
    IsAccumulative: 0
    Type: 1
  - DisplayText: Braian
    SecondaryId: 7
    Price: 35
    IsAccumulative: 0
    Type: 1
  - DisplayText: Adam
    SecondaryId: 8
    Price: 40
    IsAccumulative: 0
    Type: 1
  - DisplayText: Onigiri Chan
    SecondaryId: 9
    Price: 45
    IsAccumulative: 0
    Type: 1
  - DisplayText: Octavius
    SecondaryId: 10
    Price: 50
    IsAccumulative: 0
    Type: 1
  - DisplayText: Sadturn
    SecondaryId: 11
    Price: 55
    IsAccumulative: 0
    Type: 1
  - DisplayText: RealPlanet
    SecondaryId: 12
    Price: 60
    IsAccumulative: 0
    Type: 1
  - DisplayText: LetItBownz
    SecondaryId: 13
    Price: 65
    IsAccumulative: 0
    Type: 1
  - DisplayText: Ice-Qb
    SecondaryId: 14
    Price: 70
    IsAccumulative: 0
    Type: 1
  - DisplayText: Mapple
    SecondaryId: 15
    Price: 75
    IsAccumulative: 0
    Type: 1
  - DisplayText: Ham
    SecondaryId: 16
    Price: 80
    IsAccumulative: 0
    Type: 1
  - DisplayText: "I\u2665U"
    SecondaryId: 17
    Price: 85
    IsAccumulative: 0
    Type: 1
  - DisplayText: Poopy
    SecondaryId: 18
    Price: 90
    IsAccumulative: 0
    Type: 1
  - DisplayText: Magda
    SecondaryId: 19
    Price: 95
    IsAccumulative: 0
    Type: 1
  - DisplayText: Colin Kale
    SecondaryId: 20
    Price: 100
    IsAccumulative: 0
    Type: 1
  - DisplayText: Holly
    SecondaryId: 21
    Price: 105
    IsAccumulative: 0
    Type: 1
  - DisplayText: Ace
    SecondaryId: 22
    Price: 110
    IsAccumulative: 0
    Type: 1
  - DisplayText: Eris
    SecondaryId: 23
    Price: 115
    IsAccumulative: 0
    Type: 1
  - DisplayText: 0
    SecondaryId: 0
    Price: 10
    IsAccumulative: 0
    Type: 2
  - DisplayText: 1
    SecondaryId: 1
    Price: 20
    IsAccumulative: 0
    Type: 2
  - DisplayText: 13
    SecondaryId: 13
    Price: 130
    IsAccumulative: 0
    Type: 2
  - DisplayText: 2
    SecondaryId: 2
    Price: 30
    IsAccumulative: 0
    Type: 2
  - DisplayText: 3
    SecondaryId: 3
    Price: 40
    IsAccumulative: 0
    Type: 2
  - DisplayText: 4
    SecondaryId: 4
    Price: 50
    IsAccumulative: 0
    Type: 2
  - DisplayText: 5
    SecondaryId: 5
    Price: 60
    IsAccumulative: 0
    Type: 2
  - DisplayText: 6
    SecondaryId: 6
    Price: 70
    IsAccumulative: 0
    Type: 2
  - DisplayText: 7
    SecondaryId: 7
    Price: 80
    IsAccumulative: 0
    Type: 2
  - DisplayText: 8
    SecondaryId: 8
    Price: 90
    IsAccumulative: 0
    Type: 2
  - DisplayText: 9
    SecondaryId: 9
    Price: 100
    IsAccumulative: 0
    Type: 2
  - DisplayText: 10
    SecondaryId: 10
    Price: 110
    IsAccumulative: 0
    Type: 2
  - DisplayText: 11
    SecondaryId: 11
    Price: 120
    IsAccumulative: 0
    Type: 2
  - DisplayText: 12
    SecondaryId: 12
    Price: 130
    IsAccumulative: 0
    Type: 2
