%YAML 1.1
%TAG !u! tag:unity3d.com,2011:
--- !u!1001 &4162160664036237454
PrefabInstance:
  m_ObjectHideFlags: 0
  serializedVersion: 2
  m_Modification:
    m_TransformParent: {fileID: 0}
    m_Modifications:
    - target: {fileID: 2757954375771916137, guid: eb606da020f66e74b902060eefe58d92,
        type: 3}
      propertyPath: m_Name
      value: Trail_Default
      objectReference: {fileID: 0}
    - target: {fileID: 5476930612909768588, guid: eb606da020f66e74b902060eefe58d92,
        type: 3}
      propertyPath: m_LocalPosition.x
      value: 0
      objectReference: {fileID: 0}
    - target: {fileID: 5476930612909768588, guid: eb606da020f66e74b902060eefe58d92,
        type: 3}
      propertyPath: m_LocalPosition.y
      value: 0
      objectReference: {fileID: 0}
    - target: {fileID: 5476930612909768588, guid: eb606da020f66e74b902060eefe58d92,
        type: 3}
      propertyPath: m_LocalPosition.z
      value: 0
      objectReference: {fileID: 0}
    - target: {fileID: 5476930612909768588, guid: eb606da020f66e74b902060eefe58d92,
        type: 3}
      propertyPath: m_LocalRotation.x
      value: -0
      objectReference: {fileID: 0}
    - target: {fileID: 5476930612909768588, guid: eb606da020f66e74b902060eefe58d92,
        type: 3}
      propertyPath: m_LocalRotation.y
      value: -0
      objectReference: {fileID: 0}
    - target: {fileID: 5476930612909768588, guid: eb606da020f66e74b902060eefe58d92,
        type: 3}
      propertyPath: m_LocalRotation.z
      value: -0
      objectReference: {fileID: 0}
    - target: {fileID: 5476930612909768588, guid: eb606da020f66e74b902060eefe58d92,
        type: 3}
      propertyPath: m_LocalRotation.w
      value: 1
      objectReference: {fileID: 0}
    - target: {fileID: 5476930612909768588, guid: eb606da020f66e74b902060eefe58d92,
        type: 3}
      propertyPath: m_RootOrder
      value: 0
      objectReference: {fileID: 0}
    - target: {fileID: 5476930612909768588, guid: eb606da020f66e74b902060eefe58d92,
        type: 3}
      propertyPath: m_LocalEulerAnglesHint.x
      value: 0
      objectReference: {fileID: 0}
    - target: {fileID: 5476930612909768588, guid: eb606da020f66e74b902060eefe58d92,
        type: 3}
      propertyPath: m_LocalEulerAnglesHint.y
      value: 0
      objectReference: {fileID: 0}
    - target: {fileID: 5476930612909768588, guid: eb606da020f66e74b902060eefe58d92,
        type: 3}
      propertyPath: m_LocalEulerAnglesHint.z
      value: 0
      objectReference: {fileID: 0}
    - target: {fileID: 6882212508728701312, guid: eb606da020f66e74b902060eefe58d92,
        type: 3}
      propertyPath: m_IsActive
      value: 0
      objectReference: {fileID: 0}
    - target: {fileID: 7969616227342140701, guid: eb606da020f66e74b902060eefe58d92,
        type: 3}
      propertyPath: TrailModule.colorOverLifetime.maxGradient.key3.a
      value: 0
      objectReference: {fileID: 0}
    - target: {fileID: 7969616227342140701, guid: eb606da020f66e74b902060eefe58d92,
        type: 3}
      propertyPath: TrailModule.colorOverLifetime.maxGradient.atime3
      value: 65535
      objectReference: {fileID: 0}
    - target: {fileID: 7969616227342140701, guid: eb606da020f66e74b902060eefe58d92,
        type: 3}
      propertyPath: TrailModule.colorOverLifetime.maxGradient.m_NumAlphaKeys
      value: 2
      objectReference: {fileID: 0}
    - target: {fileID: 7969616227342140701, guid: eb606da020f66e74b902060eefe58d92,
        type: 3}
      propertyPath: TrailModule.colorOverLifetime.maxGradient.atime1
      value: 23901
      objectReference: {fileID: 0}
    - target: {fileID: 7969616227342140701, guid: eb606da020f66e74b902060eefe58d92,
        type: 3}
      propertyPath: InitialModule.startColor.maxColor.a
      value: 1
      objectReference: {fileID: 0}
    - target: {fileID: 7969616227342140701, guid: eb606da020f66e74b902060eefe58d92,
        type: 3}
      propertyPath: TrailModule.colorOverLifetime.maxGradient.atime0
      value: 3662
      objectReference: {fileID: 0}
    - target: {fileID: 7969616227342140701, guid: eb606da020f66e74b902060eefe58d92,
        type: 3}
      propertyPath: TrailModule.colorOverLifetime.maxGradient.key0.a
      value: 1
      objectReference: {fileID: 0}
    - target: {fileID: 7969616227342140701, guid: eb606da020f66e74b902060eefe58d92,
        type: 3}
      propertyPath: TrailModule.colorOverLifetime.maxGradient.key1.a
      value: 0.9352941
      objectReference: {fileID: 0}
    - target: {fileID: 7969616227342140701, guid: eb606da020f66e74b902060eefe58d92,
        type: 3}
      propertyPath: TrailModule.textureMode
      value: 0
      objectReference: {fileID: 0}
    - target: {fileID: 7969616227342140701, guid: eb606da020f66e74b902060eefe58d92,
        type: 3}
      propertyPath: TrailModule.sizeAffectsWidth
      value: 0
      objectReference: {fileID: 0}
    - target: {fileID: 7969616227342140701, guid: eb606da020f66e74b902060eefe58d92,
        type: 3}
      propertyPath: TrailModule.widthOverTrail.scalar
      value: 1
      objectReference: {fileID: 0}
    - target: {fileID: 7969616227342140701, guid: eb606da020f66e74b902060eefe58d92,
        type: 3}
      propertyPath: TrailModule.inheritParticleColor
      value: 0
      objectReference: {fileID: 0}
    - target: {fileID: 7969616227342140701, guid: eb606da020f66e74b902060eefe58d92,
        type: 3}
      propertyPath: TrailModule.attachRibbonsToTransform
      value: 0
      objectReference: {fileID: 0}
    - target: {fileID: 7969616227342140701, guid: eb606da020f66e74b902060eefe58d92,
        type: 3}
      propertyPath: TrailModule.ribbonCount
      value: 2
      objectReference: {fileID: 0}
    - target: {fileID: 7969616227342140701, guid: eb606da020f66e74b902060eefe58d92,
        type: 3}
      propertyPath: EmissionModule.rateOverDistance.scalar
      value: 10
      objectReference: {fileID: 0}
    - target: {fileID: 7969616227342140701, guid: eb606da020f66e74b902060eefe58d92,
        type: 3}
      propertyPath: TrailModule.mode
      value: 1
      objectReference: {fileID: 0}
    - target: {fileID: 7969616227342140701, guid: eb606da020f66e74b902060eefe58d92,
        type: 3}
      propertyPath: useUnscaledTime
      value: 0
      objectReference: {fileID: 0}
    - target: {fileID: 7969616227342140701, guid: eb606da020f66e74b902060eefe58d92,
        type: 3}
      propertyPath: scalingMode
      value: 1
      objectReference: {fileID: 0}
    - target: {fileID: 7969616227342140701, guid: eb606da020f66e74b902060eefe58d92,
        type: 3}
      propertyPath: ringBufferMode
      value: 0
      objectReference: {fileID: 0}
    - target: {fileID: 7969616227342140701, guid: eb606da020f66e74b902060eefe58d92,
        type: 3}
      propertyPath: cullingMode
      value: 3
      objectReference: {fileID: 0}
    - target: {fileID: 7969616227342140701, guid: eb606da020f66e74b902060eefe58d92,
        type: 3}
      propertyPath: InitialModule.startLifetime.scalar
      value: 0.4
      objectReference: {fileID: 0}
    - target: {fileID: 7969616227342140701, guid: eb606da020f66e74b902060eefe58d92,
        type: 3}
      propertyPath: InitialModule.startSize.scalar
      value: 2.2
      objectReference: {fileID: 0}
    - target: {fileID: 625272289345322112, guid: eb606da020f66e74b902060eefe58d92,
        type: 3}
      propertyPath: m_IsActive
      value: 0
      objectReference: {fileID: 0}
    m_RemovedComponents: []
  m_SourcePrefab: {fileID: 100100000, guid: eb606da020f66e74b902060eefe58d92, type: 3}
--- !u!4 &8485626456763342594 stripped
Transform:
  m_CorrespondingSourceObject: {fileID: 5476930612909768588, guid: eb606da020f66e74b902060eefe58d92,
    type: 3}
  m_PrefabInstance: {fileID: 4162160664036237454}
  m_PrefabAsset: {fileID: 0}
--- !u!1001 &7644569299170010463
PrefabInstance:
  m_ObjectHideFlags: 0
  serializedVersion: 2
  m_Modification:
    m_TransformParent: {fileID: 8485626456763342594}
    m_Modifications:
    - target: {fileID: 2874720070222816264, guid: b4022ee7e4ee0a1478be8432681eb5d8,
        type: 3}
      propertyPath: m_Name
      value: TrailParticles
      objectReference: {fileID: 0}
    - target: {fileID: 2878179489376982442, guid: b4022ee7e4ee0a1478be8432681eb5d8,
        type: 3}
      propertyPath: m_LocalPosition.x
      value: 0
      objectReference: {fileID: 0}
    - target: {fileID: 2878179489376982442, guid: b4022ee7e4ee0a1478be8432681eb5d8,
        type: 3}
      propertyPath: m_LocalPosition.y
      value: 0
      objectReference: {fileID: 0}
    - target: {fileID: 2878179489376982442, guid: b4022ee7e4ee0a1478be8432681eb5d8,
        type: 3}
      propertyPath: m_LocalPosition.z
      value: 0
      objectReference: {fileID: 0}
    - target: {fileID: 2878179489376982442, guid: b4022ee7e4ee0a1478be8432681eb5d8,
        type: 3}
      propertyPath: m_LocalRotation.x
      value: -0
      objectReference: {fileID: 0}
    - target: {fileID: 2878179489376982442, guid: b4022ee7e4ee0a1478be8432681eb5d8,
        type: 3}
      propertyPath: m_LocalRotation.y
      value: -0
      objectReference: {fileID: 0}
    - target: {fileID: 2878179489376982442, guid: b4022ee7e4ee0a1478be8432681eb5d8,
        type: 3}
      propertyPath: m_LocalRotation.z
      value: -0
      objectReference: {fileID: 0}
    - target: {fileID: 2878179489376982442, guid: b4022ee7e4ee0a1478be8432681eb5d8,
        type: 3}
      propertyPath: m_LocalRotation.w
      value: 1
      objectReference: {fileID: 0}
    - target: {fileID: 2878179489376982442, guid: b4022ee7e4ee0a1478be8432681eb5d8,
        type: 3}
      propertyPath: m_RootOrder
      value: 0
      objectReference: {fileID: 0}
    - target: {fileID: 2878179489376982442, guid: b4022ee7e4ee0a1478be8432681eb5d8,
        type: 3}
      propertyPath: m_LocalEulerAnglesHint.x
      value: 0
      objectReference: {fileID: 0}
    - target: {fileID: 2878179489376982442, guid: b4022ee7e4ee0a1478be8432681eb5d8,
        type: 3}
      propertyPath: m_LocalEulerAnglesHint.y
      value: 0
      objectReference: {fileID: 0}
    - target: {fileID: 2878179489376982442, guid: b4022ee7e4ee0a1478be8432681eb5d8,
        type: 3}
      propertyPath: m_LocalEulerAnglesHint.z
      value: 0
      objectReference: {fileID: 0}
    - target: {fileID: 2676656659807953580, guid: b4022ee7e4ee0a1478be8432681eb5d8,
        type: 3}
      propertyPath: m_Materials.Array.data[1]
      value: 
      objectReference: {fileID: 2100000, guid: 8df9b891d006cc649910b9721fa83412, type: 2}
    - target: {fileID: 2675292279551139432, guid: b4022ee7e4ee0a1478be8432681eb5d8,
        type: 3}
      propertyPath: useRigidbodyForVelocity
      value: 0
      objectReference: {fileID: 0}
    m_RemovedComponents: []
  m_SourcePrefab: {fileID: 100100000, guid: b4022ee7e4ee0a1478be8432681eb5d8, type: 3}
